{
    "CEP": "\\Rubeus\\Servicos\\TipoDado\\Mascara\\CEP",
    "CNPJ": "\\Rubeus\\Servicos\\TipoDado\\Mascara\\CNPJ",
    "CPF": "\\Rubeus\\Servicos\\TipoDado\\Mascara\\CPF",
    "Telefone": "\\Rubeus\\Servicos\\TipoDado\\Mascara\\Telefone",
    "Masc": "\\Rubeus\\Servicos\\TipoDado\\Mascara\\Masc",
    "Email": "\\Rubeus\\Servicos\\TipoDado\\Tipo\\Email",
    "Moeda": "\\Rubeus\\Servicos\\TipoDado\\Tipo\\Moeda",
    "Url": "\\Rubeus\\Servicos\\TipoDado\\Tipo\\Url",
    "DataHora": "\\Rubeus\\Servicos\\Data\\DataHora",
    "DiasUteis": "\\Rubeus\\Servicos\\Data\\DiasUteis",
    "Periodo": "\\Rubeus\\Servicos\\Data\\Periodo",
    "ValidarNasc": "\\Rubeus\\Servicos\\Data\\ValidarNasc",
    "ValidarNascMaiorIdade": "\\Rubeus\\Servicos\\Data\\ValidarNascMaiorIdade"
}
